{
  "properties": {
    "operations": {
      "type": "array",
      "title": "Operations",
      "items": {
        "type": "object",
        "properties": {
          "type": {
            "type": "string",
            "title": "Operation Type",
            "enum": [
              "Run Bot",
              "Execute Desktop App",
              "Open Web Page"
            ]
          },
          "name": {
            "type": "string",
            "title": "Bot/App Name",
            "enum": [
              "SalesforceBot",
              "WorkdayBot",
              "ServiceNow Bot",
              "Another Important Bot"
            ]
          },
          "path": {
            "type": "string",
            "title": "Bot/App Path/Url",
            "enum": [
              "Automation Anywhere",
              "Automation Anywhere\\Bots",
              "Automation Anywhere\\Bots\\Orchestrator",
              "Automation Anywhere\\Bots\\Orchestrator\\Demo"
            ]
          },
          "parameters": {
            "type": "array",
            "title": "Parameters",
            "items": {
              "type": "object",
              "properties": {
                "name": {
                  "title": "Parameter Name",
                  "type": "string",
                  "enum": [
                    "username",
                    "password",
                    "pinCode"
                  ]
                },
                "value": {
                  "title": "Parameter Value",
                  "type": "string"
                },
                "save": {
                  "title": "Do you want to save the Default Value?",
                  "type": "string",
                  "oneOf": [
                    {
                      "const": "true",
                      "title": "Yes"
                    },
                    {
                      "const": "false",
                      "title": "No"
                    }
                  ]
                },
                "type": {
                  "title": "Save the Parameter Value as",
                  "type": "string",
                  "oneOf": [
                    {
                      "const": "plain",
                      "title": "Plain Text"
                    },
                    {
                      "const": "encrypted",
                      "title": "Encrypted"
                    }
                  ],
                  "default": "plain"
                }
              },
              "required": [
                "name"
              ]
            }
          }
        }
      }
    }
  }
}